^C:\DRIVE\WORK\TEACH15\FSCODE\FLOATDATA\STDAFX.CPP
C:\DRIVE\WORK\TEACH15\FSCODE\FLOATDATA\DEBUG\FLOATDATA.PCH
C:\DRIVE\WORK\TEACH15\FSCODE\FLOATDATA\DEBUG\VC140.PDB
C:\DRIVE\WORK\TEACH15\FSCODE\FLOATDATA\DEBUG\VC140.IDB
C:\DRIVE\WORK\TEACH15\FSCODE\FLOATDATA\DEBUG\STDAFX.OBJ
^C:\DRIVE\WORK\TEACH15\FSCODE\FLOATDATA\FLOATDATA.CPP
C:\DRIVE\WORK\TEACH15\FSCODE\FLOATDATA\DEBUG\VC140.PDB
C:\DRIVE\WORK\TEACH15\FSCODE\FLOATDATA\DEBUG\VC140.IDB
C:\DRIVE\WORK\TEACH15\FSCODE\FLOATDATA\DEBUG\FLOATDATA.OBJ
